8621b2d8fb903f0582325a36147871ef 	 <speak><prosody volume="x-loud">Error.</prosody> Este mensaje no se encuentra disponible de forma local, y no estas conectado al servicio <lang xml:lang="en-UK">online</lang> de <lang xml:lang="en-UK">text to speech</lang></speak>
739af6f0c053f3b7dbe66950230a40af 	 <speak><prosody volume="x-loud">Error.</prosody> Ha habido un problema al conectarse al servicio <lang xml:lang="en-UK">online</lang> de <lang xml:lang="en-UK">text to speech</lang></speak>
49e1c577c2de43d412791091eb2d91af 	 <speak>Hola, me llamo Lola. Toca la pantalla para comenzar</speak>
6cc11482c9242ea4f36e07ec2a11ae32 	 <speak>¿Que podemos hacer hoy?</speak>
ba3f8ae181b6434720c21311f42de935 	 <speak>Iniciando cuento</speak>
9322296e3138f5fa180a0efcb9213759 	 <speak><prosody volume="x-loud" pitch="low">Error,</prosody> funncionalidad no implementada</speak>
f36906c592220aeb703eec5a409e0c84 	 <speak>Iniciando qr</speak>
b8b7d1bd3c75509e3e49a3fa8b7511f2 	 <speak>Iniciando correo_auto</speak>
2eb668c5966bb2063114f7ba1076c3fd 	 <speak>Iniciando Alarma</speak>
829b8cd4792ca6489a2d75bbc35a649d 	 <speak>Enviar correo de alarma</speak>
fb659a86a75fe234f57ccee49b749c72 	 <speak>Iniciando puzle_a</speak>
18e0d67fc28ad940f76f132324ace639 	 <speak>Iniciando puzle_b</speak>
2dac927df4f5fab226ab4f5dae3bfabd 	 <speak>Iniciando Email</speak>
b79aabb7067435bb1eaeec813e6a281b 	 <speak>Iniciando juego</speak>
f0f6fe314420a95b30c3a0f66b0e3aef 	 <speak>Iniciando calendario</speak>
4643491bd811d8a21b2301481e6ce7eb 	 <speak>Iniciando agenda</speak>
ad853b396bf359a62a296bff15f1f003 	 <speak>Iniciando alarma</speak>
3dc044ce63f73e427cff12848d7ab7ee 	 <speak>Iniciando good</speak>
c1e2881abb4ae11655fb7bac69d2ed9a 	 <speak>Enviar correo indicando Estoy Bien</speak>
761b0d839670aa2e0972b4649b6e85c4 	 <speak>Iniciando captura</speak>
d7703cb3ec422f4dc96b7f48dd9c4b00 	 <speak>Iniciando ProxQR</speak>
1fa1cf75d63b274d0c9618118f19887f 	 <speak>Por favor, quiero agua.</speak>
20a8c956dbc5ee8c4ecf9d1c2d9b83ad 	 <speak>Tiempo superado</speak>
b4f5b5e93f1016e6d83189255653a952 	 <speak>Con que se escribe barco</speak>
815827f832e353cc7709d93139299403 	 <speak>Por favor, quiero dormir.</speak>
2ea3954c3f784bd0159d9c6b229b4a2f 	 <speak>No se ha podido enviar el mensaje.</speak>
